module github.com/connerwill/packer-builder-arm

go 1.16

require (
	cloud.google.com/go v0.101.1 // indirect
	github.com/Azure/go-ntlmssp v0.0.0-20211209120228-48547f28849e // indirect
	github.com/armon/go-metrics v0.3.11 // indirect
	github.com/aws/aws-sdk-go v1.44.14 // indirect
	github.com/census-instrumentation/opencensus-proto v0.3.0 // indirect
	github.com/cespare/xxhash/v2 v2.1.2 // indirect
	github.com/cncf/udpa/go v0.0.0-20220112060539-c52dc94e7fbe // indirect
	github.com/cncf/xds/go v0.0.0-20220511222645-42e9329d8a3a // indirect
	github.com/dsnet/compress v0.0.1 // indirect
	github.com/dustin/go-humanize v1.0.0
	github.com/envoyproxy/protoc-gen-validate v0.6.7 // indirect
	github.com/fatih/color v1.13.0 // indirect
	github.com/go-ldap/ldap v3.0.2+incompatible // indirect
	github.com/gofrs/uuid v4.2.0+incompatible // indirect
	github.com/googleapis/gax-go/v2 v2.4.0 // indirect
	github.com/hashicorp/consul/api v1.12.0 // indirect
	github.com/hashicorp/go-getter v1.5.11
	github.com/hashicorp/go-getter/gcs/v2 v2.0.2 // indirect
	github.com/hashicorp/go-getter/s3/v2 v2.0.2 // indirect
	github.com/hashicorp/go-hclog v1.2.0 // indirect
	github.com/hashicorp/go-plugin v1.4.4 // indirect
	github.com/hashicorp/go-retryablehttp v0.7.1 // indirect
	github.com/hashicorp/go-secure-stdlib/mlock v0.1.2 // indirect
	github.com/hashicorp/go-secure-stdlib/parseutil v0.1.4 // indirect
	github.com/hashicorp/go-secure-stdlib/strutil v0.1.2 // indirect
	github.com/hashicorp/go-uuid v1.0.3 // indirect
	github.com/hashicorp/go-version v1.4.0 // indirect
	github.com/hashicorp/go.net v0.0.1 // indirect
	github.com/hashicorp/hcl/v2 v2.12.0
	github.com/hashicorp/packer-plugin-sdk v0.2.13
	github.com/hashicorp/serf v0.9.8 // indirect
	github.com/hashicorp/vault/api v1.5.0 // indirect
	github.com/hashicorp/yamux v0.0.0-20211028200310-0bc27b27de87 // indirect
	github.com/klauspost/compress v1.15.4 // indirect
	github.com/masterzen/winrm v0.0.0-20220513085036-69f69afcd9e9 // indirect
	github.com/mattn/go-colorable v0.1.12 // indirect
	github.com/mholt/archiver v3.1.1+incompatible
	github.com/mitchellh/copystructure v1.2.0 // indirect
	github.com/mitchellh/gox v0.4.0 // indirect
	github.com/mitchellh/mapstructure v1.5.0 // indirect
	github.com/mitchellh/reflectwalk v1.0.2 // indirect
	github.com/nwaples/rardecode v1.1.3 // indirect
	github.com/oklog/run v1.1.0 // indirect
	github.com/pkg/sftp v1.13.4 // indirect
	github.com/ugorji/go v1.2.7 // indirect
	github.com/xi2/xz v0.0.0-20171230120015-48954b6210f8 // indirect
	github.com/zclconf/go-cty v1.10.0
	golang.org/x/crypto v0.0.0-20220513210258-46612604a0f9 // indirect
	golang.org/x/net v0.0.0-20220513224357-95641704303c // indirect
	golang.org/x/sys v0.0.0-20220513210249-45d2b4557a2a // indirect
	golang.org/x/term v0.0.0-20220411215600-e5f449aeb171 // indirect
	golang.org/x/time v0.0.0-20220411224347-583f2d630306 // indirect
	google.golang.org/api v0.79.0 // indirect
	google.golang.org/grpc v1.46.2 // indirect
	gopkg.in/asn1-ber.v1 v1.0.0-20181015200546-f715ec2f112d // indirect
)
